<?xml version="1.0" encoding="UTF-8" standalone="no"?>
<svg
   xmlns:dc="http://purl.org/dc/elements/1.1/"
   xmlns:cc="http://creativecommons.org/ns#"
   xmlns:rdf="http://www.w3.org/1999/02/22-rdf-syntax-ns#"
   xmlns:svg="http://www.w3.org/2000/svg"
   xmlns="http://www.w3.org/2000/svg"
   xmlns:xlink="http://www.w3.org/1999/xlink"
   id="svg39"
   version="1.2"
   viewBox="0 0 76.88 20.26"
   height="20.26pt"
   width="76.88pt">
  <metadata
     id="metadata43">
    <rdf:RDF>
      <cc:Work
         rdf:about="">
        <dc:format>image/svg+xml</dc:format>
        <dc:type
           rdf:resource="http://purl.org/dc/dcmitype/StillImage" />
        <dc:title></dc:title>
      </cc:Work>
    </rdf:RDF>
  </metadata>
  <defs
     id="defs22">
    <g
       id="g17">
      <symbol
         id="glyph0-0"
         overflow="visible">
        <path
           id="path2"
           d="M 1.234375 -14.9375 L 1.234375 -2.359375 L 5.453125 -8.65625 Z M 1.984375 -1.234375 L 10.40625 -1.234375 L 6.203125 -7.53125 Z M 6.9375 -8.65625 L 11.15625 -2.359375 L 11.15625 -14.9375 Z M 6.203125 -9.765625 L 10.40625 -16.03125 L 1.984375 -16.03125 Z M 0 0 L 0 -17.296875 L 12.390625 -17.296875 L 12.390625 0 Z M 0 0 "
           style="stroke:none;" />
      </symbol>
      <symbol
         id="glyph0-1"
         overflow="visible">
        <path
           id="path5"
           d="M 9.78125 -15.640625 C 10 -14.492188 10.144531 -13.425781 10.21875 -12.4375 C 10.019531 -12.28125 9.75 -12.234375 9.40625 -12.296875 C 9.269531 -12.765625 9.117188 -13.160156 8.953125 -13.484375 C 8.796875 -13.816406 8.582031 -14.144531 8.3125 -14.46875 C 8.039062 -14.800781 7.6875 -15.050781 7.25 -15.21875 C 6.820312 -15.382812 6.320312 -15.46875 5.75 -15.46875 C 5.03125 -15.46875 4.394531 -15.179688 3.84375 -14.609375 C 3.300781 -14.035156 3.03125 -13.394531 3.03125 -12.6875 C 3.03125 -12.289062 3.128906 -11.914062 3.328125 -11.5625 C 3.523438 -11.207031 3.742188 -10.914062 3.984375 -10.6875 C 4.222656 -10.46875 4.550781 -10.238281 4.96875 -10 C 5.394531 -9.769531 5.734375 -9.601562 5.984375 -9.5 C 6.234375 -9.40625 6.566406 -9.273438 6.984375 -9.109375 C 7.554688 -8.890625 8.054688 -8.660156 8.484375 -8.421875 C 8.910156 -8.191406 9.328125 -7.898438 9.734375 -7.546875 C 10.148438 -7.191406 10.460938 -6.757812 10.671875 -6.25 C 10.890625 -5.75 11 -5.1875 11 -4.5625 C 11 -3.78125 10.785156 -3.03125 10.359375 -2.3125 C 9.941406 -1.59375 9.378906 -1.007812 8.671875 -0.5625 C 7.804688 -0.03125 6.785156 0.234375 5.609375 0.234375 C 4.828125 0.234375 4.003906 0.140625 3.140625 -0.046875 C 2.285156 -0.234375 1.625 -0.328125 1.15625 -0.328125 C 0.90625 -1.367188 0.742188 -2.625 0.671875 -4.09375 C 0.921875 -4.226562 1.1875 -4.25 1.46875 -4.15625 C 1.988281 -1.8125 3.4375 -0.640625 5.8125 -0.640625 C 6.8125 -0.640625 7.578125 -0.898438 8.109375 -1.421875 C 8.648438 -1.941406 8.921875 -2.695312 8.921875 -3.6875 C 8.921875 -4.15625 8.847656 -4.578125 8.703125 -4.953125 C 8.554688 -5.335938 8.390625 -5.644531 8.203125 -5.875 C 8.015625 -6.101562 7.742188 -6.320312 7.390625 -6.53125 C 7.035156 -6.75 6.75 -6.90625 6.53125 -7 C 6.3125 -7.101562 6 -7.226562 5.59375 -7.375 C 4.96875 -7.613281 4.425781 -7.851562 3.96875 -8.09375 C 3.519531 -8.34375 3.070312 -8.648438 2.625 -9.015625 C 2.175781 -9.390625 1.835938 -9.828125 1.609375 -10.328125 C 1.378906 -10.828125 1.265625 -11.390625 1.265625 -12.015625 C 1.265625 -13.285156 1.722656 -14.316406 2.640625 -15.109375 C 3.566406 -15.910156 4.679688 -16.3125 5.984375 -16.3125 C 6.921875 -16.3125 7.726562 -16.207031 8.40625 -16 C 9.09375 -15.789062 9.550781 -15.671875 9.78125 -15.640625 Z M 9.78125 -15.640625 "
           style="stroke:none;" />
      </symbol>
      <symbol
         id="glyph0-2"
         overflow="visible">
        <path
           id="path8"
           d="M 6.78125 -10.828125 C 5.78125 -10.828125 4.910156 -10.382812 4.171875 -9.5 C 3.441406 -8.625 3.078125 -7.390625 3.078125 -5.796875 C 3.078125 -4.273438 3.457031 -3.019531 4.21875 -2.03125 C 4.988281 -1.050781 5.976562 -0.5625 7.1875 -0.5625 C 8.3125 -0.5625 9.210938 -1.003906 9.890625 -1.890625 C 10.566406 -2.773438 10.90625 -3.972656 10.90625 -5.484375 C 10.90625 -7.085938 10.503906 -8.378906 9.703125 -9.359375 C 8.898438 -10.335938 7.925781 -10.828125 6.78125 -10.828125 Z M 13.0625 -5.8125 C 13.0625 -4.113281 12.503906 -2.679688 11.390625 -1.515625 C 10.285156 -0.347656 8.757812 0.234375 6.8125 0.234375 C 5.125 0.234375 3.71875 -0.300781 2.59375 -1.375 C 1.476562 -2.457031 0.921875 -3.832031 0.921875 -5.5 C 0.921875 -7.300781 1.503906 -8.773438 2.671875 -9.921875 C 3.835938 -11.078125 5.285156 -11.65625 7.015625 -11.65625 C 8.679688 -11.65625 10.101562 -11.109375 11.28125 -10.015625 C 12.46875 -8.929688 13.0625 -7.53125 13.0625 -5.8125 Z M 13.0625 -5.8125 "
           style="stroke:none;" />
      </symbol>
      <symbol
         id="glyph0-3"
         overflow="visible">
        <path
           id="path11"
           d="M 23.6875 -8.375 C 23.6875 -9.363281 23.585938 -9.972656 23.390625 -10.203125 C 23.191406 -10.429688 22.695312 -10.578125 21.90625 -10.640625 C 21.832031 -10.710938 21.796875 -10.847656 21.796875 -11.046875 C 21.796875 -11.242188 21.832031 -11.378906 21.90625 -11.453125 C 22.894531 -11.410156 23.679688 -11.390625 24.265625 -11.390625 C 24.859375 -11.390625 25.648438 -11.410156 26.640625 -11.453125 C 26.710938 -11.378906 26.75 -11.242188 26.75 -11.046875 C 26.75 -10.847656 26.710938 -10.710938 26.640625 -10.640625 C 25.847656 -10.578125 25.351562 -10.429688 25.15625 -10.203125 C 24.957031 -9.972656 24.859375 -9.363281 24.859375 -8.375 L 24.859375 -5.546875 C 24.859375 -1.691406 23.015625 0.234375 19.328125 0.234375 C 16.765625 0.234375 15.484375 -1.335938 15.484375 -4.484375 L 15.484375 -8.375 C 15.484375 -9.363281 15.382812 -9.972656 15.1875 -10.203125 C 14.988281 -10.429688 14.492188 -10.578125 13.703125 -10.640625 C 13.628906 -10.710938 13.59375 -10.847656 13.59375 -11.046875 C 13.59375 -11.242188 13.628906 -11.378906 13.703125 -11.453125 C 15.128906 -11.410156 16.046875 -11.390625 16.453125 -11.390625 C 16.910156 -11.390625 17.835938 -11.410156 19.234375 -11.453125 C 19.304688 -11.378906 19.34375 -11.242188 19.34375 -11.046875 C 19.34375 -10.847656 19.304688 -10.710938 19.234375 -10.640625 C 18.441406 -10.578125 17.945312 -10.429688 17.75 -10.203125 C 17.550781 -9.972656 17.453125 -9.363281 17.453125 -8.375 L 17.453125 -5.015625 C 17.453125 -4.347656 17.484375 -3.78125 17.546875 -3.3125 C 17.609375 -2.851562 17.734375 -2.394531 17.921875 -1.9375 C 18.109375 -1.488281 18.414062 -1.144531 18.84375 -0.90625 C 19.269531 -0.675781 19.796875 -0.5625 20.421875 -0.5625 C 20.953125 -0.5625 21.410156 -0.617188 21.796875 -0.734375 C 22.179688 -0.859375 22.488281 -1.050781 22.71875 -1.3125 C 22.957031 -1.570312 23.144531 -1.828125 23.28125 -2.078125 C 23.425781 -2.328125 23.523438 -2.664062 23.578125 -3.09375 C 23.640625 -3.519531 23.671875 -3.863281 23.671875 -4.125 C 23.679688 -4.382812 23.6875 -4.753906 23.6875 -5.234375 Z M 5.25 2.125 C 5.03125 2.125 4.773438 2.21875 4.484375 2.40625 C 4.203125 2.601562 3.96875 2.898438 3.78125 3.296875 L 3.03125 2.921875 C 3.34375 2.472656 3.789062 2.003906 4.375 1.515625 C 4.957031 1.023438 5.582031 0.597656 6.25 0.234375 C 4.695312 0.109375 3.414062 -0.484375 2.40625 -1.546875 C 1.394531 -2.609375 0.890625 -3.925781 0.890625 -5.5 C 0.890625 -7.300781 1.46875 -8.773438 2.625 -9.921875 C 3.789062 -11.078125 5.25 -11.65625 7 -11.65625 C 8.664062 -11.65625 10.085938 -11.109375 11.265625 -10.015625 C 12.441406 -8.929688 13.03125 -7.53125 13.03125 -5.8125 C 13.03125 -4.375 12.625 -3.109375 11.8125 -2.015625 C 11 -0.921875 9.859375 -0.222656 8.390625 0.078125 C 7.285156 0.421875 6.394531 0.820312 5.71875 1.28125 C 5.75 1.269531 5.816406 1.265625 5.921875 1.265625 C 6.546875 1.265625 7.039062 1.316406 7.40625 1.421875 C 8.382812 1.671875 9.242188 1.953125 9.984375 2.265625 C 10.734375 2.578125 11.320312 2.796875 11.75 2.921875 C 12.1875 3.046875 12.785156 3.109375 13.546875 3.109375 C 14.578125 3.109375 15.726562 2.898438 17 2.484375 C 18.269531 2.066406 19.1875 1.664062 19.75 1.28125 L 20.0625 1.53125 C 19.539062 2.070312 18.523438 2.609375 17.015625 3.140625 C 15.503906 3.671875 14.023438 3.9375 12.578125 3.9375 C 11.816406 3.9375 11.050781 3.84375 10.28125 3.65625 C 9.519531 3.46875 8.890625 3.257812 8.390625 3.03125 C 7.890625 2.8125 7.347656 2.601562 6.765625 2.40625 C 6.191406 2.21875 5.6875 2.125 5.25 2.125 Z M 6.765625 -10.828125 C 5.753906 -10.828125 4.878906 -10.382812 4.140625 -9.5 C 3.410156 -8.625 3.046875 -7.390625 3.046875 -5.796875 C 3.046875 -4.273438 3.425781 -3.019531 4.1875 -2.03125 C 4.957031 -1.050781 5.945312 -0.5625 7.15625 -0.5625 C 8.28125 -0.5625 9.179688 -1.003906 9.859375 -1.890625 C 10.535156 -2.773438 10.875 -3.972656 10.875 -5.484375 C 10.875 -7.085938 10.472656 -8.378906 9.671875 -9.359375 C 8.867188 -10.335938 7.898438 -10.828125 6.765625 -10.828125 Z M 6.765625 -10.828125 "
           style="stroke:none;" />
      </symbol>
      <symbol
         id="glyph0-4"
         overflow="visible">
        <path
           id="path14"
           d="M 6.140625 -5.578125 L 4.734375 -5.578125 L 4.734375 -1.859375 C 4.734375 -1.453125 4.816406 -1.164062 4.984375 -1 C 5.160156 -0.84375 5.507812 -0.765625 6.03125 -0.765625 L 7.09375 -0.765625 C 8.03125 -0.765625 8.734375 -1.003906 9.203125 -1.484375 C 9.671875 -1.960938 10.023438 -2.625 10.265625 -3.46875 C 10.492188 -3.53125 10.722656 -3.5 10.953125 -3.375 C 10.710938 -2.019531 10.46875 -0.878906 10.21875 0.046875 C 9.125 0.015625 8.25 0 7.59375 0 L 3.765625 0 C 3.097656 0 2.175781 0.015625 1 0.046875 C 0.925781 -0.015625 0.890625 -0.144531 0.890625 -0.34375 C 0.890625 -0.539062 0.925781 -0.679688 1 -0.765625 C 1.78125 -0.828125 2.269531 -0.96875 2.46875 -1.1875 C 2.664062 -1.414062 2.765625 -2.03125 2.765625 -3.03125 L 2.765625 -8.375 C 2.765625 -9.363281 2.664062 -9.972656 2.46875 -10.203125 C 2.269531 -10.429688 1.78125 -10.578125 1 -10.640625 C 0.925781 -10.710938 0.890625 -10.847656 0.890625 -11.046875 C 0.890625 -11.242188 0.925781 -11.378906 1 -11.453125 C 2.175781 -11.410156 3.085938 -11.390625 3.734375 -11.390625 L 8.875 -11.390625 C 9.25 -11.390625 9.585938 -11.425781 9.890625 -11.5 C 9.929688 -11.5 9.953125 -11.472656 9.953125 -11.421875 C 10.066406 -11.023438 10.21875 -10.039062 10.40625 -8.46875 C 10.1875 -8.375 9.960938 -8.332031 9.734375 -8.34375 C 9.554688 -8.914062 9.394531 -9.332031 9.25 -9.59375 C 9.113281 -9.851562 8.851562 -10.082031 8.46875 -10.28125 C 8.09375 -10.476562 7.582031 -10.578125 6.9375 -10.578125 L 5.53125 -10.578125 C 5.289062 -10.578125 5.097656 -10.515625 4.953125 -10.390625 C 4.804688 -10.273438 4.734375 -10.109375 4.734375 -9.890625 L 4.734375 -6.359375 L 6.140625 -6.359375 C 6.898438 -6.359375 7.363281 -6.441406 7.53125 -6.609375 C 7.707031 -6.773438 7.816406 -7.15625 7.859375 -7.75 C 7.921875 -7.820312 8.035156 -7.859375 8.203125 -7.859375 C 8.367188 -7.859375 8.488281 -7.820312 8.5625 -7.75 C 8.519531 -6.925781 8.5 -6.34375 8.5 -6 C 8.5 -5.5625 8.519531 -4.957031 8.5625 -4.1875 C 8.488281 -4.125 8.367188 -4.09375 8.203125 -4.09375 C 8.035156 -4.09375 7.921875 -4.125 7.859375 -4.1875 C 7.835938 -4.46875 7.8125 -4.675781 7.78125 -4.8125 C 7.757812 -4.945312 7.691406 -5.082031 7.578125 -5.21875 C 7.472656 -5.363281 7.304688 -5.457031 7.078125 -5.5 C 6.847656 -5.550781 6.535156 -5.578125 6.140625 -5.578125 Z M 6.140625 -5.578125 "
           style="stroke:none;" />
      </symbol>
    </g>
    <clipPath
       id="clip1">
      <path
         id="path19"
         d="M 0 0 L 76.878906 0 L 76.878906 20.261719 L 0 20.261719 Z M 0 0 " />
    </clipPath>
  </defs>
  <g
     id="surface667">
    <g
       id="g36"
       clip-rule="nonzero"
       clip-path="url(#clip1)">
      <g
         id="g34"
         style="fill:rgb(0%,0%,0%);fill-opacity:1;">
        <use
           id="use24"
           y="16.315"
           x="0"
           xlink:href="#glyph0-1" />
        <use
           id="use26"
           y="16.315"
           x="12.021743"
           xlink:href="#glyph0-2" />
        <use
           id="use28"
           y="16.315"
           x="25.976881"
           xlink:href="#glyph0-3" />
        <use
           id="use30"
           y="16.315"
           x="53.267478"
           xlink:href="#glyph0-4" />
        <use
           id="use32"
           y="16.315"
           x="65.090925"
           xlink:href="#glyph0-4" />
      </g>
    </g>
  </g>
</svg>
